Buy,New with tags,,,,,,,,,Charge for Shipping,USPS,,,Returns Not Accepts
Sell,New without tags,,,,,,,,,Offer free Shipping,FedEx,,,Accept Returns
Trade,New with defects,,,,,,,,,Local Pick Up,DHL,,,
Donate,Excellent,,,,,,,,,,UPS,,,
,Good,,,,,,,,,,,,,
,Fair,,,,,,,,,,,,,
,,,,,,,,,,,,,,
I am Looking to,Condition,Quantity,Product Title (Store View),Short Description (Store View),Youtube video URL,Original Price,Sale Price,Sale Start Date,Sale End Date,Shipping,Shipping Method,Shipping Price ,Shipping Days,Returns
Sell,New without tags,1,toy 1,Great toy 1,,,10,,,Charge for Shipping,UPS,10,3,Accept Returns
Sell,New without tags,1,toy 2,Great toy 2,,,20,,,Charge for Shipping,UPS,10,3,Accept Returns
Sell,New without tags,1,toy 3,Great toy 3,,,30,,,Charge for Shipping,UPS,10,3,Accept Returns
Sell,New without tags,1,toy 4,Great toy 4,,,40,,,Charge for Shipping,UPS,10,3,Accept Returns
Sell,New without tags,1,toy 5,Great toy 5,,,50,,,Charge for Shipping,UPS,10,3,Accept Returns
