Buy,New with tags,,,,,,,,,Charge for Shipping,USPS,,,Returns Not Accepts
Sell,New without tags,,,,,,,,,Offer free Shipping,FedEx,,,Accept Returns
Trade,New with defects,,,,,,,,,Local Pick Up,DHL,,,
Donate,Excellent,,,,,,,,,,UPS,,,
,Good,,,,,,,,,,,,,
,Fair,,,,,,,,,,,,,
,,,,,,,,,,,,,,
I am Looking to,Condition,Quantity,Product Title (Store View),Short Description (Store View),Youtube video URL,Original Price,Sale Price,Sale Start Date,Sale End Date,Shipping,Shipping Method,Shipping Price ,Shipping Days,Returns
Sale,Fair,2,educki,randome products uploding demo,www.youtube.com,2,1,02/09/2018,02/18/2018,Charge for Shipping,USPS,2,3,Return Accepted
